Date,Symbol,Expiry,Option Type,Strike Price,Open,High,Low,Close,Last,Settle Price,Number of Contracts,Turnover,Premium Turnover,Open Interest,Change in OI,Underlying
2023-01-02,NIFTY,2023-02-23,CE,16600.0,0.0,0.0,0.0,2258.7,0.0,1813.0,0,0.0,0.0,0,0,18197.45
2023-01-03,NIFTY,2023-02-23,CE,16600.0,0.0,0.0,0.0,2258.7,0.0,1839.85,0,0.0,0.0,0,0,18232.55
2023-01-04,NIFTY,2023-02-23,CE,16600.0,0.0,0.0,0.0,2258.7,0.0,1661.6,0,0.0,0.0,0,0,18042.95
2023-01-05,NIFTY,2023-02-23,CE,16600.0,0.0,0.0,0.0,2258.7,0.0,1610.25,0,0.0,0.0,0,0,17992.15
2023-01-06,NIFTY,2023-02-23,CE,16600.0,0.0,0.0,0.0,2258.7,0.0,1486.7,0,0.0,0.0,0,0,17859.45
2023-01-09,NIFTY,2023-02-23,CE,16600.0,0.0,0.0,0.0,2258.7,0.0,1689.0,0,0.0,0.0,0,0,18101.2
2023-01-10,NIFTY,2023-02-23,CE,16600.0,0.0,0.0,0.0,2258.7,0.0,1514.3,0,0.0,0.0,0,0,17914.15
2023-01-11,NIFTY,2023-02-23,CE,16600.0,0.0,0.0,0.0,2258.7,0.0,1491.95,0,0.0,0.0,0,0,17895.7
2023-01-12,NIFTY,2023-02-23,CE,16600.0,0.0,0.0,0.0,2258.7,0.0,1452.35,0,0.0,0.0,0,0,17858.2
2023-01-13,NIFTY,2023-02-23,CE,16600.0,0.0,0.0,0.0,2258.7,0.0,1535.6,0,0.0,0.0,0,0,17956.6
2023-01-16,NIFTY,2023-02-23,CE,16600.0,1536.6,1538.75,1505.0,1505.0,1505.0,1463.25,5,4533000.0,383000.0,150,150,17894.85
2023-01-17,NIFTY,2023-02-23,CE,16600.0,1438.0,1586.8,1438.0,1586.8,1586.8,1586.8,8,7245999.999999999,606000.0,450,300,18053.3
2023-01-18,NIFTY,2023-02-23,CE,16600.0,1585.5,1698.45,1585.5,1698.45,1698.45,1698.45,6,5467000.0,487000.0,550,100,18165.35
2023-01-19,NIFTY,2023-02-23,CE,16600.0,1623.15,1623.15,1623.15,1623.15,1623.15,1645.2,2,1822000.0,162000.0,550,0,18107.85
2023-01-20,NIFTY,2023-02-23,CE,16600.0,1520.0,1530.0,1520.0,1530.0,1530.0,1530.0,3,2719000.0,229000.0,550,0,18027.65
2023-01-23,NIFTY,2023-02-23,CE,16600.0,1625.0,1625.0,1625.0,1625.0,1625.0,1637.1,3,2734000.0,244000.0,650,100,18118.55
2023-01-24,NIFTY,2023-02-23,CE,16600.0,1675.05,1675.05,1590.0,1600.3,1600.0,1600.3,111,101203000.0,9073000.0,5200,4550,18118.3
2023-01-25,NIFTY,2023-02-23,CE,16600.0,1543.85,1543.85,1358.75,1367.2,1384.05,1367.2,17,15325000.0,1215000.0,5750,550,17891.95
2023-01-27,NIFTY,2023-02-23,CE,16600.0,1345.0,1345.0,1100.0,1141.95,1141.95,1141.95,15,13374000.0,924000.0,5800,50,17604.35
2023-01-30,NIFTY,2023-02-23,CE,16600.0,1157.0,1165.0,1051.1,1165.0,1165.0,1165.0,19,16806000.0,1036000.0,5950,150,17648.95
2023-01-31,NIFTY,2023-02-23,CE,16600.0,1105.0,1200.0,1105.0,1200.0,1200.0,1167.05,19,16864000.0,1094000.0,5850,-100,17662.15
2023-02-01,NIFTY,2023-02-23,CE,16600.0,1310.0,1320.0,957.9,1002.0,1002.0,1118.75,35,30895999.999999996,1846000.0,7050,1200,17616.3
2023-02-02,NIFTY,2023-02-23,CE,16600.0,1001.35,1113.6,1001.35,1024.15,1024.15,1107.3,10,8824000.0,524000.0,7150,100,17610.4
2023-02-03,NIFTY,2023-02-23,CE,16600.0,1180.45,1192.05,1120.0,1192.05,1192.05,1330.55,7,6212000.0,401999.99999999994,7000,-150,17854.05
2023-02-06,NIFTY,2023-02-23,CE,16600.0,1265.15,1265.15,1238.15,1238.15,1238.15,1230.35,2,1785000.0000000002,125000.0,7050,50,17764.6
2023-02-07,NIFTY,2023-02-23,CE,16600.0,0.0,0.0,0.0,1238.15,1238.15,1184.0,0,0.0,0.0,7050,0,17721.5
2023-02-08,NIFTY,2023-02-23,CE,16600.0,0.0,0.0,0.0,1238.15,1238.15,1325.2,0,0.0,0.0,7050,0,17871.7
2023-02-09,NIFTY,2023-02-23,CE,16600.0,0.0,0.0,0.0,1238.15,1238.15,1342.55,0,0.0,0.0,7050,0,17893.45
2023-02-10,NIFTY,2023-02-23,CE,16600.0,0.0,0.0,0.0,1238.15,1238.15,1301.95,0,0.0,0.0,7050,0,17856.5
2023-02-13,NIFTY,2023-02-23,CE,16600.0,1277.95,1277.95,1174.0,1219.05,1219.05,1205.05,11,9797000.0,667000.0,7250,200,17770.9
2023-02-14,NIFTY,2023-02-23,CE,16600.0,0.0,0.0,0.0,1219.05,1219.05,1358.8,0,0.0,0.0,7250,0,17929.85
2023-02-15,NIFTY,2023-02-23,CE,16600.0,1327.75,1342.0,1327.75,1342.0,1342.0,1441.2,2,1793000.0,133000.0,7250,0,18015.85
2023-02-16,NIFTY,2023-02-23,CE,16600.0,1484.85,1484.85,1484.85,1484.85,1484.85,1457.95,2,1807999.9999999998,148000.0,7150,-100,18035.85
2023-02-17,NIFTY,2023-02-23,CE,16600.0,1407.95,1407.95,1348.7,1348.7,1348.7,1363.15,2,1798000.0,138000.0,7150,0,17944.2
2023-02-20,NIFTY,2023-02-23,CE,16600.0,1322.0,1372.0,1315.0,1315.0,1315.0,1254.1,7,6280000.0,470000.0,6800,-350,17844.6
2023-02-21,NIFTY,2023-02-23,CE,16600.0,1327.0,1327.0,1227.9,1227.9,1227.9,1227.9,24,21490000.0,1570000.0,6200,-600,17826.7
2023-02-22,NIFTY,2023-02-23,CE,16600.0,1151.0,1151.0,942.05,989.0,989.0,989.0,59,52216000.0,3246000.0,5200,-1000,17554.3
2023-02-23,NIFTY,2023-02-23,CE,16600.0,878.15,979.55,878.15,916.65,917.55,17511.25,18,15788000.0,848000.0,5150,-50,17511.25
