Date,Symbol,Expiry,Option Type,Strike Price,Open,High,Low,Close,Last,Settle Price,Number of Contracts,Turnover,Premium Turnover,Open Interest,Change in OI,Underlying
2023-01-02,NIFTY,2023-02-23,PE,16700.0,55.25,57.9,41.0,42.85,41.0,42.85,823,689141000.0,1936000.0,53100,17900,18197.45
2023-01-03,NIFTY,2023-02-23,PE,16700.0,42.85,46.55,38.8,39.7,39.0,39.7,474,396779000.0,989000.0,62250,9150,18232.55
2023-01-04,NIFTY,2023-02-23,PE,16700.0,41.4,59.5,38.35,57.55,56.2,57.55,769,644092000.0,1977000.0,74550,12300,18042.95
2023-01-05,NIFTY,2023-02-23,PE,16700.0,56.1,69.0,50.0,58.45,57.7,58.45,969,811958000.0,2843000.0,95500,20950,17992.15
2023-01-06,NIFTY,2023-02-23,PE,16700.0,56.9,74.0,49.6,66.05,63.7,66.05,2881,2414447000.0,8812000.0,165300,69800,17859.45
2023-01-09,NIFTY,2023-02-23,PE,16700.0,54.75,56.9,39.75,40.6,41.65,40.6,1298,1086691000.0,2861000.0,166650,1350,18101.2
2023-01-10,NIFTY,2023-02-23,PE,16700.0,43.8,63.55,43.25,56.95,54.7,56.95,1451,1215579000.0,3994000.0,183600,16950,17914.15
2023-01-11,NIFTY,2023-02-23,PE,16700.0,59.15,65.45,48.9,54.35,54.4,54.35,1415,1185397000.0,3872000.0,197800,14200,17895.7
2023-01-12,NIFTY,2023-02-23,PE,16700.0,50.0,64.85,49.2,51.3,51.0,51.3,4807,4027487000.0000005,13641999.999999998,312050,114250,17858.2
2023-01-13,NIFTY,2023-02-23,PE,16700.0,50.85,55.7,34.45,35.2,34.85,35.2,4271,3575376000.0,9091000.0,338950,26900,17956.6
2023-01-16,NIFTY,2023-02-23,PE,16700.0,33.1,41.65,30.45,36.7,37.5,36.7,2699,2258740000.0,5075000.0,357750,18800,17894.85
2023-01-17,NIFTY,2023-02-23,PE,16700.0,40.25,40.25,26.8,27.4,27.75,27.4,2754,2303769000.0,4179000.0,357900,150,18053.3
2023-01-18,NIFTY,2023-02-23,PE,16700.0,27.7,28.05,20.8,21.75,21.65,21.75,3943,3296926999.9999995,4522000.0,346450,-11450,18165.35
2023-01-19,NIFTY,2023-02-23,PE,16700.0,23.6,26.05,19.1,19.75,19.75,19.75,3096,2588598000.0,3438000.0000000005,323200,-23250,18107.85
2023-01-20,NIFTY,2023-02-23,PE,16700.0,19.7,19.7,15.85,18.35,18.05,18.35,5134,4291403000.0,4513000.0,268300,-54900,18027.65
2023-01-23,NIFTY,2023-02-23,PE,16700.0,16.0,16.0,11.05,11.3,11.6,11.3,4635,3873119999.9999995,2895000.0,239900,-28400,18118.55
2023-01-24,NIFTY,2023-02-23,PE,16700.0,11.6,11.6,9.5,10.9,11.15,10.9,3045,2544145000.0,1570000.0,250300,10400,18118.3
2023-01-25,NIFTY,2023-02-23,PE,16700.0,12.25,27.3,11.55,21.3,21.0,21.3,3900,3260408000.0,3908000.0,279200,28900,17891.95
2023-01-27,NIFTY,2023-02-23,PE,16700.0,22.0,83.65,22.0,65.65,64.9,65.65,17192,14405514000.000002,50194000.0,313950,34750,17604.35
2023-01-30,NIFTY,2023-02-23,PE,16700.0,80.65,106.2,47.0,57.25,61.0,57.25,15190,12735445000.0,51795000.00000001,314650,700,17648.95
2023-01-31,NIFTY,2023-02-23,PE,16700.0,50.0,71.0,35.15,40.25,38.5,40.25,16556,13866298000.000002,42038000.0,386700,72050,17662.15
2023-02-01,NIFTY,2023-02-23,PE,16700.0,34.05,100.0,16.45,49.05,55.95,49.05,74187,62063872000.0,117727000.0,436750,50050,17616.3
2023-02-02,NIFTY,2023-02-23,PE,16700.0,60.0,75.0,31.3,33.65,34.4,33.65,20534,17190906000.0,45016000.0,463550,26800,17610.4
2023-02-03,NIFTY,2023-02-23,PE,16700.0,32.25,36.45,15.75,16.7,16.5,16.7,32436,27122540000.000004,38480000.0,466200,2650,17854.05
2023-02-06,NIFTY,2023-02-23,PE,16700.0,16.0,19.4,12.5,13.4,14.2,13.4,18503,15464121000.0,14116000.0,471500,5300,17764.6
2023-02-07,NIFTY,2023-02-23,PE,16700.0,12.05,16.45,9.9,10.9,10.1,10.9,18327,15313941000.0,10896000.0,635500,164000,17721.5
2023-02-08,NIFTY,2023-02-23,PE,16700.0,9.55,9.75,7.0,7.35,7.1,7.35,20016,16721373000.000002,8013000.0,573450,-62050,17871.7
2023-02-09,NIFTY,2023-02-23,PE,16700.0,8.05,8.05,4.8,5.15,5.0,5.15,17023,14219254999.999998,5050000.0,526400,-47050,17893.45
2023-02-10,NIFTY,2023-02-23,PE,16700.0,5.15,7.1,3.45,4.0,4.25,4.0,18684,15605392000.000002,4252000.0,732100,205700,17856.5
2023-02-13,NIFTY,2023-02-23,PE,16700.0,4.45,6.55,3.1,4.05,4.05,4.05,20406,17043465000.0,4455000.0,746450,14350,17770.9
2023-02-14,NIFTY,2023-02-23,PE,16700.0,4.0,4.65,3.15,4.0,3.7,4.0,18454,15412797000.0,3707000.0,710000,-21450,17929.85
2023-02-15,NIFTY,2023-02-23,PE,16700.0,3.75,3.9,2.75,3.0,3.0,3.0,20252,16913544000.0,3124000.0,582250,-127750,18015.85
2023-02-16,NIFTY,2023-02-23,PE,16700.0,3.0,3.0,1.85,2.0,2.1,2.0,27606,23054091000.0,3081000.0,1103650,521400,18035.85
2023-02-17,NIFTY,2023-02-23,PE,16700.0,2.0,2.5,1.3,1.55,1.45,1.55,74494,62209177000.0,6687000.0,1246850,143200,17944.2
2023-02-20,NIFTY,2023-02-23,PE,16700.0,1.55,1.7,0.85,1.15,0.9,1.15,35217,29408559999.999996,2365000.0,1179200,-67650,17844.6
2023-02-21,NIFTY,2023-02-23,PE,16700.0,0.9,1.3,0.65,0.75,0.7,0.75,29010,24224770000.0,1420000.0,1180100,900,17826.7
2023-02-22,NIFTY,2023-02-23,PE,16700.0,0.75,1.4,0.6,0.8,0.7,0.8,59937,50050358000.0,2963000.0,1122500,-57600,17554.3
2023-02-23,NIFTY,2023-02-23,PE,16700.0,0.65,1.15,0.05,0.1,0.05,17511.25,153658,128309029000.0,4599000.0,820400,-302100,17511.25
