Date,Symbol,Expiry,Option Type,Strike Price,Open,High,Low,Close,Last,Settle Price,Number of Contracts,Turnover,Premium Turnover,Open Interest,Change in OI,Underlying
2023-01-02,NIFTY,2023-02-23,CE,16800.0,0.0,0.0,0.0,2089.5,0.0,1636.75,0,0.0,0.0,0,0,18197.45
2023-01-03,NIFTY,2023-02-23,CE,16800.0,0.0,0.0,0.0,2089.5,0.0,1662.2,0,0.0,0.0,0,0,18232.55
2023-01-04,NIFTY,2023-02-23,CE,16800.0,0.0,0.0,0.0,2089.5,0.0,1488.9,0,0.0,0.0,0,0,18042.95
2023-01-05,NIFTY,2023-02-23,CE,16800.0,1394.25,1394.25,1394.25,1394.25,1394.25,1438.6,1,910000.0,70000.0,50,50,17992.15
2023-01-06,NIFTY,2023-02-23,CE,16800.0,0.0,0.0,0.0,1394.25,1394.25,1319.1,0,0.0,0.0,50,0,17859.45
2023-01-09,NIFTY,2023-02-23,CE,16800.0,0.0,0.0,0.0,1394.25,1394.25,1512.2,0,0.0,0.0,50,0,18101.2
2023-01-10,NIFTY,2023-02-23,CE,16800.0,1377.55,1377.55,1377.55,1377.55,1377.55,1343.0,1,909000.0,69000.0,100,50,17914.15
2023-01-11,NIFTY,2023-02-23,CE,16800.0,0.0,0.0,0.0,1377.55,1377.55,1320.65,0,0.0,0.0,100,0,17895.7
2023-01-12,NIFTY,2023-02-23,CE,16800.0,1232.65,1232.65,1200.0,1200.0,1200.0,1281.85,15,13503000.0,902999.9999999999,850,750,17858.2
2023-01-13,NIFTY,2023-02-23,CE,16800.0,1197.0,1197.0,1168.0,1168.0,1168.0,1361.0,8,7193000.000000001,473000.00000000006,950,100,17956.6
2023-01-16,NIFTY,2023-02-23,CE,16800.0,1371.5,1371.5,1233.2,1247.35,1270.2,1247.35,7,6331000.0,451000.0,1050,100,17894.85
2023-01-17,NIFTY,2023-02-23,CE,16800.0,1244.6,1385.65,1244.6,1374.5,1385.65,1374.5,6,5436000.0,396000.0,1150,100,18053.3
2023-01-18,NIFTY,2023-02-23,CE,16800.0,1393.3,1495.4,1393.3,1467.55,1467.55,1467.55,9,8212000.0,652000.0,1350,200,18165.35
2023-01-19,NIFTY,2023-02-23,CE,16800.0,1392.05,1450.75,1392.05,1450.0,1450.0,1462.45,9,8204000.000000001,644000.0,1350,0,18107.85
2023-01-20,NIFTY,2023-02-23,CE,16800.0,1350.0,1356.4,1335.0,1356.4,1356.4,1384.15,14,12705000.0,944999.9999999999,1400,50,18027.65
2023-01-23,NIFTY,2023-02-23,CE,16800.0,1415.05,1432.9,1415.05,1432.9,1432.9,1432.9,4,3645000.0000000005,285000.0,1500,100,18118.55
2023-01-24,NIFTY,2023-02-23,CE,16800.0,1450.0,1470.0,1393.1,1403.35,1405.0,1403.35,40,36480000.0,2880000.0,3150,1650,18118.3
2023-01-25,NIFTY,2023-02-23,CE,16800.0,1360.65,1360.65,1183.0,1191.15,1201.95,1191.15,89,80192000.0,5432000.0,7250,4100,17891.95
2023-01-27,NIFTY,2023-02-23,CE,16800.0,1154.9,1154.9,882.95,952.8,964.0,952.8,91,80686000.0,4246000.0,9000,1750,17604.35
2023-01-30,NIFTY,2023-02-23,CE,16800.0,945.0,1056.0,838.55,973.1,981.0,973.1,92,81459000.0,4179000.0,9050,50,17648.95
2023-01-31,NIFTY,2023-02-23,CE,16800.0,980.0,1056.95,921.0,1053.15,1056.95,1053.15,32,28431000.0,1551000.0,9300,250,17662.15
2023-02-01,NIFTY,2023-02-23,CE,16800.0,1059.35,1191.8,788.65,946.25,915.2,946.25,160,142084000.0,7684000.0,12750,3450,17616.3
2023-02-02,NIFTY,2023-02-23,CE,16800.0,820.05,971.6,820.0,912.5,907.0,912.5,113,99994000.0,5074000.0,14950,2200,17610.4
2023-02-03,NIFTY,2023-02-23,CE,16800.0,1000.0,1135.0,892.1,1118.15,1084.0,1118.15,59,52583000.00000001,3023000.0,13450,-1500,17854.05
2023-02-06,NIFTY,2023-02-23,CE,16800.0,1030.1,1030.1,980.05,1020.6,1018.8,1020.6,49,43637000.0,2477000.0,12200,-1250,17764.6
2023-02-07,NIFTY,2023-02-23,CE,16800.0,1004.0,1004.0,975.0,980.0,980.0,997.7,8,7117000.0,397000.0,12050,-150,17721.5
2023-02-08,NIFTY,2023-02-23,CE,16800.0,1123.1,1123.1,1086.85,1106.25,1106.25,1106.25,10,8953000.0,553000.0,12100,50,17871.7
2023-02-09,NIFTY,2023-02-23,CE,16800.0,1092.85,1166.65,1090.5,1153.0,1153.0,1153.0,15,13447000.0,847000.0000000001,12100,0,17893.45
2023-02-10,NIFTY,2023-02-23,CE,16800.0,1066.3,1084.55,1066.3,1078.05,1078.05,1078.05,4,3575000.0,215000.0,12150,50,17856.5
2023-02-13,NIFTY,2023-02-23,CE,16800.0,1046.5,1048.05,960.0,1000.0,1000.0,1010.2,15,13344000.0,744000.0,12200,50,17770.9
2023-02-14,NIFTY,2023-02-23,CE,16800.0,1136.2,1136.2,1136.2,1136.2,1136.2,1160.9,1,897000.0000000001,56999.99999999999,12150,-50,17929.85
2023-02-15,NIFTY,2023-02-23,CE,16800.0,1153.8,1248.0,1141.35,1244.05,1247.9,1244.05,10,8999000.0,599000.0,12000,-150,18015.85
2023-02-16,NIFTY,2023-02-23,CE,16800.0,1346.6,1349.85,1300.0,1321.0,1321.0,1258.55,37,33538000.0,2458000.0,11950,-50,18035.85
2023-02-17,NIFTY,2023-02-23,CE,16800.0,1185.4,1230.0,1141.3,1153.25,1156.55,1153.25,9,8089000.0,529000.0,12000,50,17944.2
2023-02-20,NIFTY,2023-02-23,CE,16800.0,1161.55,1173.0,1059.2,1067.55,1067.55,1067.55,34,30438000.0,1878000.0,11550,-450,17844.6
2023-02-21,NIFTY,2023-02-23,CE,16800.0,1094.3,1128.6,1018.2,1027.5,1027.5,1027.5,24,21481000.0,1321000.0,11000,-550,17826.7
2023-02-22,NIFTY,2023-02-23,CE,16800.0,946.0,946.0,735.5,763.4,770.45,763.4,67,58991000.0,2711000.0,9600,-1400,17554.3
2023-02-23,NIFTY,2023-02-23,CE,16800.0,755.9,827.55,701.1,713.0,713.0,17511.25,64,56211000.0,2451000.0,8200,-1400,17511.25
