Date,Symbol,Expiry,Option Type,Strike Price,Open,High,Low,Close,Last,Settle Price,Number of Contracts,Turnover,Premium Turnover,Open Interest,Change in OI,Underlying
2023-01-02,NIFTY,2023-02-23,CE,16900.0,0.0,0.0,0.0,2006.85,0.0,1550.95,0,0.0,0.0,0,0,18197.45
2023-01-03,NIFTY,2023-02-23,CE,16900.0,0.0,0.0,0.0,2006.85,0.0,1575.6,0,0.0,0.0,0,0,18232.55
2023-01-04,NIFTY,2023-02-23,CE,16900.0,0.0,0.0,0.0,2006.85,0.0,1405.2,0,0.0,0.0,0,0,18042.95
2023-01-05,NIFTY,2023-02-23,CE,16900.0,0.0,0.0,0.0,2006.85,0.0,1355.55,0,0.0,0.0,0,0,17992.15
2023-01-06,NIFTY,2023-02-23,CE,16900.0,0.0,0.0,0.0,2006.85,0.0,1238.4,0,0.0,0.0,0,0,17859.45
2023-01-09,NIFTY,2023-02-23,CE,16900.0,0.0,0.0,0.0,2006.85,0.0,1426.35,0,0.0,0.0,0,0,18101.2
2023-01-10,NIFTY,2023-02-23,CE,16900.0,0.0,0.0,0.0,2006.85,0.0,1260.3,0,0.0,0.0,0,0,17914.15
2023-01-11,NIFTY,2023-02-23,CE,16900.0,0.0,0.0,0.0,2006.85,0.0,1238.05,0,0.0,0.0,0,0,17895.7
2023-01-12,NIFTY,2023-02-23,CE,16900.0,0.0,0.0,0.0,2006.85,0.0,1199.7,0,0.0,0.0,0,0,17858.2
2023-01-13,NIFTY,2023-02-23,CE,16900.0,1135.1,1229.75,1135.1,1229.75,1229.75,1276.55,5,4518000.0,293000.0,150,150,17956.6
2023-01-16,NIFTY,2023-02-23,CE,16900.0,1287.65,1287.65,1123.75,1166.05,1166.9,1166.05,608,549480000.0,35720000.0,27300,27150,17894.85
2023-01-17,NIFTY,2023-02-23,CE,16900.0,1143.45,1297.8,1142.05,1290.9,1287.45,1290.9,31,28070000.0,1875000.0,27450,150,18053.3
2023-01-18,NIFTY,2023-02-23,CE,16900.0,1297.5,1409.3,1297.5,1409.3,1409.3,1431.05,21,19194000.0,1449000.0,27450,0,18165.35
2023-01-19,NIFTY,2023-02-23,CE,16900.0,1320.35,1357.15,1319.85,1320.95,1320.95,1373.45,46,41953000.0,3083000.0,27500,50,18107.85
2023-01-20,NIFTY,2023-02-23,CE,16900.0,1255.0,1255.0,1241.8,1250.6,1241.8,1250.6,3,2723000.0,188000.0,27500,0,18027.65
2023-01-23,NIFTY,2023-02-23,CE,16900.0,1318.75,1328.3,1306.0,1310.0,1310.0,1361.05,23,20952000.0,1517000.0,27500,0,18118.55
2023-01-24,NIFTY,2023-02-23,CE,16900.0,1360.0,1370.0,1303.75,1314.8,1314.8,1352.5,34,31014999.999999996,2285000.0,27500,0,18118.3
2023-01-25,NIFTY,2023-02-23,CE,16900.0,1260.2,1260.2,1094.0,1145.0,1145.0,1144.25,50,45111000.0,2861000.0,28300,800,17891.95
2023-01-27,NIFTY,2023-02-23,CE,16900.0,1051.5,1080.45,808.65,876.15,882.25,876.15,136,120899000.0,5979000.0,30250,1950,17604.35
2023-01-30,NIFTY,2023-02-23,CE,16900.0,829.3,985.0,754.65,910.0,927.9,910.0,444,393761000.0,18581000.0,48850,18600,17648.95
2023-01-31,NIFTY,2023-02-23,CE,16900.0,910.0,978.9,841.6,951.0,960.35,951.0,221,196897000.0,10152000.0,49000,150,17662.15
2023-02-01,NIFTY,2023-02-23,CE,16900.0,1001.85,1186.75,702.0,835.05,845.0,835.05,82,72861000.0,3571000.0,49500,500,17616.3
2023-02-02,NIFTY,2023-02-23,CE,16900.0,754.2,878.7,753.75,835.55,837.0,835.55,171,151374000.0,6879000.000000001,55500,6000,17610.4
2023-02-03,NIFTY,2023-02-23,CE,16900.0,902.0,1034.2,799.0,1031.1,1027.95,1031.1,30,26718000.0,1368000.0,55650,150,17854.05
2023-02-06,NIFTY,2023-02-23,CE,16900.0,900.0,962.35,885.95,927.9,924.75,927.9,71,63308000.00000001,3313000.0000000005,55550,-100,17764.6
2023-02-07,NIFTY,2023-02-23,CE,16900.0,914.4,914.4,844.0,895.65,895.65,895.65,5,4447000.0,222000.00000000003,55650,100,17721.5
2023-02-08,NIFTY,2023-02-23,CE,16900.0,938.9,1022.45,938.6,1013.9,1017.3,1013.9,14,12521000.0,691000.0,55700,50,17871.7
2023-02-09,NIFTY,2023-02-23,CE,16900.0,987.7,1070.25,938.95,1045.4,1047.4,1045.4,20,17920000.0,1019999.9999999999,55900,200,17893.45
2023-02-10,NIFTY,2023-02-23,CE,16900.0,978.4,991.45,941.2,979.95,989.4,979.95,78,69677000.0,3767000.0,54950,-950,17856.5
2023-02-13,NIFTY,2023-02-23,CE,16900.0,940.45,940.45,870.0,905.95,906.35,905.95,53,47152000.0,2367000.0,55550,600,17770.9
2023-02-14,NIFTY,2023-02-23,CE,16900.0,941.35,1070.0,941.35,1049.2,1052.85,1049.2,43,38445000.0,2110000.0,54150,-1400,17929.85
2023-02-15,NIFTY,2023-02-23,CE,16900.0,1020.5,1143.0,1020.5,1143.0,1143.0,1143.0,5,4493000.0,268000.0,54000,-150,18015.85
2023-02-16,NIFTY,2023-02-23,CE,16900.0,1214.95,1238.0,1154.3,1167.35,1154.3,1167.35,27,24468000.0,1653000.0,53600,-400,18035.85
2023-02-17,NIFTY,2023-02-23,CE,16900.0,1075.7,1134.0,998.0,1051.55,1051.55,1051.55,24,21553000.0,1273000.0,53150,-450,17944.2
2023-02-20,NIFTY,2023-02-23,CE,16900.0,1064.65,1110.35,945.25,957.15,957.15,954.35,37,33137000.0,1872000.0,52950,-200,17844.6
2023-02-21,NIFTY,2023-02-23,CE,16900.0,977.75,1025.85,913.95,953.0,955.65,953.0,487,435680000.0,24165000.0,31750,-21200,17826.7
2023-02-22,NIFTY,2023-02-23,CE,16900.0,842.15,848.8,642.45,662.8,671.8,662.8,133,117304000.0,4919000.0,28150,-3600,17554.3
2023-02-23,NIFTY,2023-02-23,CE,16900.0,648.0,686.85,564.95,609.45,613.35,17511.25,76,66674000.0,2454000.0,26400,-1750,17511.25
