Date,Symbol,Expiry,Option Type,Strike Price,Open,High,Low,Close,Last,Settle Price,Number of Contracts,Turnover,Premium Turnover,Open Interest,Change in OI,Underlying
2023-01-02,NIFTY,2023-02-23,CE,17400.0,1010.45,1033.3,1010.45,1033.3,1033.3,1150.75,4,3684000.0000000005,204000.0,850,100,18197.45
2023-01-03,NIFTY,2023-02-23,CE,17400.0,1075.0,1079.55,1070.0,1079.55,1079.55,1170.8,3,2771000.0,161000.0,1000,150,18232.55
2023-01-04,NIFTY,2023-02-23,CE,17400.0,1037.4,1037.4,1037.4,1037.4,1037.4,1018.65,1,922000.0000000001,52000.0,1050,50,18042.95
2023-01-05,NIFTY,2023-02-23,CE,17400.0,966.6,966.6,813.65,870.0,870.0,973.4,36,32889999.999999996,1570000.0,2350,1300,17992.15
2023-01-06,NIFTY,2023-02-23,CE,17400.0,900.0,903.65,691.75,787.2,782.7,787.2,178,161643000.0,6783000.0,8650,6300,17859.45
2023-01-09,NIFTY,2023-02-23,CE,17400.0,863.4,907.4,859.95,907.4,907.4,1029.05,13,11888000.0,578000.0,8800,150,18101.2
2023-01-10,NIFTY,2023-02-23,CE,17400.0,907.75,907.75,768.9,800.8,803.1,800.8,95,86545000.0,3895000.0000000005,9000,200,17914.15
2023-01-11,NIFTY,2023-02-23,CE,17400.0,822.8,822.8,778.25,785.05,778.25,785.05,21,19104000.0,834000.0,8850,-150,17895.7
2023-01-12,NIFTY,2023-02-23,CE,17400.0,786.3,806.05,589.5,738.0,739.4,738.0,163,147402000.0,5592000.0,11600,2750,17858.2
2023-01-13,NIFTY,2023-02-23,CE,17400.0,707.35,825.95,696.0,806.05,811.8,806.05,64,58040000.0,2360000.0,13300,1700,17956.6
2023-01-16,NIFTY,2023-02-23,CE,17400.0,781.9,808.45,710.0,740.55,745.15,740.55,109,98930000.0,4100000.0,10650,-2650,17894.85
2023-01-17,NIFTY,2023-02-23,CE,17400.0,760.0,863.0,760.0,852.25,849.1,852.25,63,57404000.0,2594000.0,9600,-1050,18053.3
2023-01-18,NIFTY,2023-02-23,CE,17400.0,872.0,949.9,838.2,938.05,938.05,938.05,31,28405000.0,1435000.0,9400,-200,18165.35
2023-01-19,NIFTY,2023-02-23,CE,17400.0,886.8,905.0,856.15,857.85,857.85,960.25,8,7309999.999999999,350000.0,9400,0,18107.85
2023-01-20,NIFTY,2023-02-23,CE,17400.0,848.0,892.0,795.0,796.7,805.25,796.7,192,174877000.0,7837000.0,11650,2250,18027.65
2023-01-23,NIFTY,2023-02-23,CE,17400.0,861.7,914.35,848.0,876.75,870.55,876.75,76,69440000.0,3320000.0000000005,13150,1500,18118.55
2023-01-24,NIFTY,2023-02-23,CE,17400.0,929.55,929.55,848.95,863.5,852.4,863.5,396,361533000.0,17013000.0,30700,17550,18118.3
2023-01-25,NIFTY,2023-02-23,CE,17400.0,805.15,806.8,649.15,673.6,671.25,673.6,701,634476000.0,24606000.0,31050,350,17891.95
2023-01-27,NIFTY,2023-02-23,CE,17400.0,659.7,659.7,436.95,498.9,496.8,498.9,4008,3588414000.0,101454000.0,104700,73650,17604.35
2023-01-30,NIFTY,2023-02-23,CE,17400.0,454.6,581.0,406.35,523.6,530.0,523.6,11773,10534510000.0,292000000.0,156250,51550,17648.95
2023-01-31,NIFTY,2023-02-23,CE,17400.0,556.0,565.0,462.6,548.25,547.0,548.25,2973,2662788000.0,76278000.0,153100,-3150,17662.15
2023-02-01,NIFTY,2023-02-23,CE,17400.0,595.45,726.0,354.85,441.15,449.75,441.15,9822,8766270000.0,221130000.00000003,168500,15400,17616.3
2023-02-02,NIFTY,2023-02-23,CE,17400.0,407.1,476.75,366.1,431.95,425.0,431.95,8177,7285031000.0,171041000.0,168300,-200,17610.4
2023-02-03,NIFTY,2023-02-23,CE,17400.0,470.0,595.5,394.2,575.05,556.05,575.05,3707,3312686000.0,87596000.0,140850,-27450,17854.05
2023-02-06,NIFTY,2023-02-23,CE,17400.0,517.2,538.4,444.65,482.5,474.0,482.5,1559,1393536000.0,37206000.0,139550,-1300,17764.6
2023-02-07,NIFTY,2023-02-23,CE,17400.0,502.35,526.0,405.0,453.85,450.4,453.85,1911,1706204000.0,43634000.0,134100,-5450,17721.5
2023-02-08,NIFTY,2023-02-23,CE,17400.0,471.65,571.0,463.7,548.8,544.45,548.8,1193,1069742000.0,31832000.0,129100,-5000,17871.7
2023-02-09,NIFTY,2023-02-23,CE,17400.0,521.6,598.45,472.5,574.75,585.0,574.75,894,802321000.0,24541000.0,124550,-4550,17893.45
2023-02-10,NIFTY,2023-02-23,CE,17400.0,500.0,522.25,460.0,503.15,501.55,503.15,1159,1036958000.0,28627999.999999996,128200,3650,17856.5
2023-02-13,NIFTY,2023-02-23,CE,17400.0,484.5,520.0,396.9,435.25,436.35,435.25,1737,1548640000.0,37450000.0,129500,1300,17770.9
2023-02-14,NIFTY,2023-02-23,CE,17400.0,459.25,585.3,447.7,563.85,557.85,563.85,1711,1532461000.0,43891000.0,114200,-15300,17929.85
2023-02-15,NIFTY,2023-02-23,CE,17400.0,525.95,654.55,491.3,643.15,652.0,643.15,802,720473000.0,22733000.0,116850,2650,18015.85
2023-02-16,NIFTY,2023-02-23,CE,17400.0,700.0,755.7,654.55,670.1,657.1,670.1,372,336746000.0,13106000.0,114200,-2650,18035.85
2023-02-17,NIFTY,2023-02-23,CE,17400.0,584.45,640.55,503.85,555.5,555.35,555.5,2171,1949330000.0,60560000.0,106400,-7800,17944.2
2023-02-20,NIFTY,2023-02-23,CE,17400.0,574.8,612.65,443.85,466.45,471.2,466.45,2878,2579981000.0,76121000.0,102550,-3850,17844.6
2023-02-21,NIFTY,2023-02-23,CE,17400.0,488.65,534.0,407.6,442.45,453.0,442.45,2601,2324417000.0,61547000.0,95500,-7050,17826.7
2023-02-22,NIFTY,2023-02-23,CE,17400.0,374.0,384.25,156.6,178.0,183.15,178.0,136204,119841633000.0,1344153000.0,249350,153850,17554.3
2023-02-23,NIFTY,2023-02-23,CE,17400.0,181.1,231.0,87.2,112.2,110.75,17511.25,681774,598243821000.0,5100441000.0,350700,101350,17511.25
