Date,Symbol,Expiry,Option Type,Strike Price,Open,High,Low,Close,Last,Settle Price,Number of Contracts,Turnover,Premium Turnover,Open Interest,Change in OI,Underlying
2023-01-02,NIFTY,2023-02-23,CE,18000.0,575.0,618.65,557.4,606.6,611.0,606.6,919,854250000.0,27150000.0,147100,700,18197.45
2023-01-03,NIFTY,2023-02-23,CE,18000.0,587.35,641.0,567.0,629.6,630.7,629.6,1082,1007011000.0,33211000.0,152800,5700,18232.55
2023-01-04,NIFTY,2023-02-23,CE,18000.0,600.0,617.95,497.5,505.1,500.05,505.1,3052,2828152000.0,81352000.0,186200,33400,18042.95
2023-01-05,NIFTY,2023-02-23,CE,18000.0,512.0,548.8,425.0,473.55,475.1,473.55,6195,5723069000.0,147569000.0,252900,66700,17992.15
2023-01-06,NIFTY,2023-02-23,CE,18000.0,474.55,499.9,372.1,399.6,401.8,399.6,7826,7206223000.0,162823000.0,352150,99250,17859.45
2023-01-09,NIFTY,2023-02-23,CE,18000.0,459.95,542.55,422.85,507.0,500.95,507.0,6599,6102955000.0,163855000.0,346300,-5850,18101.2
2023-01-10,NIFTY,2023-02-23,CE,18000.0,490.5,495.45,386.45,408.25,413.3,408.25,5526,5091266000.0,117866000.00000001,370200,23900,17914.15
2023-01-11,NIFTY,2023-02-23,CE,18000.0,400.0,449.7,373.1,389.45,388.1,389.45,7463,6868269000.0,151569000.0,405650,35450,17895.7
2023-01-12,NIFTY,2023-02-23,CE,18000.0,399.4,414.2,326.0,361.25,368.2,361.25,8488,7790798000.0,151598000.0,483600,77950,17858.2
2023-01-13,NIFTY,2023-02-23,CE,18000.0,362.0,433.6,318.0,398.35,393.0,398.35,8910,8183022000.0,164022000.0,505300,21700,17956.6
2023-01-16,NIFTY,2023-02-23,CE,18000.0,411.8,432.0,330.75,349.1,348.1,349.1,11457,10520717000.0,209417000.0,607050,101750,17894.85
2023-01-17,NIFTY,2023-02-23,CE,18000.0,354.5,424.9,339.6,415.85,417.95,415.85,13752,12646211000.0,269411000.0,670000,62950,18053.3
2023-01-18,NIFTY,2023-02-23,CE,18000.0,419.0,497.0,406.5,485.0,490.1,485.0,10379,9580421000.0,239321000.0,654850,-15150,18165.35
2023-01-19,NIFTY,2023-02-23,CE,18000.0,454.45,467.2,410.5,420.65,415.0,420.65,9261,8536946000.000001,202046000.0,659150,4300,18107.85
2023-01-20,NIFTY,2023-02-23,CE,18000.0,415.5,444.25,362.65,371.7,373.75,371.7,18255,16795885999.999998,366386000.0,839900,180750,18027.65
2023-01-23,NIFTY,2023-02-23,CE,18000.0,399.95,446.95,392.0,415.75,417.3,415.75,16883,15549179000.0,354479000.0,890200,50300,18118.55
2023-01-24,NIFTY,2023-02-23,CE,18000.0,454.0,455.0,386.75,405.2,399.0,405.2,15126,13927060999.999998,313661000.0,1076900,186700,18118.3
2023-01-25,NIFTY,2023-02-23,CE,18000.0,384.2,384.2,270.4,281.0,283.1,281.0,80670,73817767000.0,1214767000.0,1968100,891200,17891.95
2023-01-27,NIFTY,2023-02-23,CE,18000.0,273.8,282.5,155.35,184.4,184.0,184.4,139771,127306978000.0,1513078000.0,2494500,526400,17604.35
2023-01-30,NIFTY,2023-02-23,CE,18000.0,179.75,229.15,139.4,191.7,197.25,191.7,62355,56687022000.0,567522000.0,2534400,39900,17648.95
2023-01-31,NIFTY,2023-02-23,CE,18000.0,212.35,216.85,165.5,195.85,195.0,195.85,46191,42002605000.0,430705000.0,2611050,76650,17662.15
2023-02-01,NIFTY,2023-02-23,CE,18000.0,220.0,283.9,100.2,136.35,131.0,136.35,190910,173613336000.0,1794336000.0,2765050,154000,17616.3
2023-02-02,NIFTY,2023-02-23,CE,18000.0,119.95,142.75,96.85,114.55,112.0,114.55,77046,69789964000.0,448564000.00000006,2904800,139750,17610.4
2023-02-03,NIFTY,2023-02-23,CE,18000.0,131.1,179.8,92.0,166.65,150.0,166.65,105887,95981525000.0,683225000.0,2930150,25350,17854.05
2023-02-06,NIFTY,2023-02-23,CE,18000.0,140.1,147.65,105.05,117.0,113.0,117.0,81645,73961452000.0,480952000.00000006,3266350,336200,17764.6
2023-02-07,NIFTY,2023-02-23,CE,18000.0,129.15,134.65,83.5,96.75,95.0,96.75,90064,81525422000.0,467822000.0,3521550,255200,17721.5
2023-02-08,NIFTY,2023-02-23,CE,18000.0,98.0,142.0,95.95,126.45,123.1,126.45,123661,112065422000.0,770522000.0,3308550,-213000,17871.7
2023-02-09,NIFTY,2023-02-23,CE,18000.0,125.0,146.75,90.5,129.1,134.6,129.1,122787,111236568000.0,728268000.0,3355650,47100,17893.45
2023-02-10,NIFTY,2023-02-23,CE,18000.0,129.1,129.1,77.4,89.2,87.0,89.2,136399,123361410000.00002,602310000.0,3669300,313650,17856.5
2023-02-13,NIFTY,2023-02-23,CE,18000.0,85.0,93.5,54.05,61.15,60.9,61.15,167287,151097002000.0,538702000.0,4277050,607750,17770.9
2023-02-14,NIFTY,2023-02-23,CE,18000.0,75.0,116.4,61.05,105.0,104.0,105.0,222778,201505815000.0,1005615000.0,3739400,-532450,17929.85
2023-02-15,NIFTY,2023-02-23,CE,18000.0,104.0,142.0,68.15,131.45,136.0,131.45,377725,341861668000.0,1909168000.0,4095400,356000,18015.85
2023-02-16,NIFTY,2023-02-23,CE,18000.0,150.0,205.0,129.35,136.6,132.75,136.6,483269,438905857000.0,3963757000.0,5518650,1423250,18035.85
2023-02-17,NIFTY,2023-02-23,CE,18000.0,104.0,125.0,60.45,72.9,71.0,72.9,3680520,3328494211000.0,16026210999.999998,11795600,6276950,17944.2
2023-02-20,NIFTY,2023-02-23,CE,18000.0,71.0,91.6,32.9,37.25,37.0,37.25,3490607,3151868327000.0,10322027000.0,15723800,3928200,17844.6
2023-02-21,NIFTY,2023-02-23,CE,18000.0,36.0,49.75,16.35,18.65,20.0,18.65,3062437,2760888419000.0,4695119000.0,13703000,-2020800,17826.7
2023-02-22,NIFTY,2023-02-23,CE,18000.0,14.8,14.8,2.85,3.3,3.6,3.3,2565126,2309280340000.0,666940000.0,15230850,1527850,17554.3
2023-02-23,NIFTY,2023-02-23,CE,18000.0,1.4,2.25,0.05,0.15,0.1,17511.25,1841859,1657774030000.0,100930000.0,10207200,-5023650,17511.25
