Date,Symbol,Expiry,Option Type,Strike Price,Open,High,Low,Close,Last,Settle Price,Number of Contracts,Turnover,Premium Turnover,Open Interest,Change in OI,Underlying
2023-01-02,NIFTY,2023-02-23,PE,18300.0,391.1,436.5,368.1,376.15,374.0,376.15,443,414025000.0,8680000.0,48800,4050,18197.45
2023-01-03,NIFTY,2023-02-23,PE,18300.0,388.45,402.05,351.0,358.0,356.75,358.0,1636,1527400000.0,30460000.000000004,90300,41500,18232.55
2023-01-04,NIFTY,2023-02-23,PE,18300.0,369.95,482.5,362.95,465.05,468.8,465.05,668,625532000.0,14312000.0,92500,2200,18042.95
2023-01-05,NIFTY,2023-02-23,PE,18300.0,459.45,547.0,420.0,483.0,479.35,483.0,521,489527000.00000006,12812000.0,93650,1150,17992.15
2023-01-06,NIFTY,2023-02-23,PE,18300.0,473.05,592.0,442.0,542.25,540.7,542.25,565,531956000.00000006,14981000.0,93150,-500,17859.45
2023-01-09,NIFTY,2023-02-23,PE,18300.0,486.0,486.0,376.5,394.65,398.05,394.65,806,754082000.0,16591999.999999998,94300,1150,18101.2
2023-01-10,NIFTY,2023-02-23,PE,18300.0,410.55,546.0,410.55,505.8,505.0,505.8,538,505285000.00000006,13015000.0,100500,6200,17914.15
2023-01-11,NIFTY,2023-02-23,PE,18300.0,516.95,569.8,463.35,513.75,517.95,513.75,1529,1437824000.0,38789000.0,99800,-700,17895.7
2023-01-12,NIFTY,2023-02-23,PE,18300.0,502.05,601.0,484.05,528.6,527.85,528.6,531,500468999.99999994,14604000.0,107300,7500,17858.2
2023-01-13,NIFTY,2023-02-23,PE,18300.0,549.05,574.0,421.0,446.2,447.65,446.2,630,591445000.0,14994999.999999998,105500,-1800,17956.6
2023-01-16,NIFTY,2023-02-23,PE,18300.0,427.05,527.6,404.0,492.15,488.2,492.15,1055,989814000.0,24489000.0,123450,17950,17894.85
2023-01-17,NIFTY,2023-02-23,PE,18300.0,500.05,501.0,388.5,392.9,394.85,392.9,852,797511000.0,17931000.0,135500,12050,18053.3
2023-01-18,NIFTY,2023-02-23,PE,18300.0,390.0,396.9,315.0,328.85,325.1,328.85,2710,2525103000.0,45453000.0,162100,26600,18165.35
2023-01-19,NIFTY,2023-02-23,PE,18300.0,354.85,384.0,330.0,354.05,361.55,354.05,1990,1855622000.0,34772000.0,156600,-5500,18107.85
2023-01-20,NIFTY,2023-02-23,PE,18300.0,343.95,395.6,318.65,378.4,378.6,378.4,4023,3751066000.0000005,70021000.0,175300,18700,18027.65
2023-01-23,NIFTY,2023-02-23,PE,18300.0,350.2,352.55,291.65,312.45,312.2,312.45,6033,5613567000.0,93372000.0,189250,13950,18118.55
2023-01-24,NIFTY,2023-02-23,PE,18300.0,275.05,333.65,269.5,317.25,320.25,317.25,7865,7314970000.0,118495000.0,275200,85950,18118.3
2023-01-25,NIFTY,2023-02-23,PE,18300.0,334.25,512.45,332.95,462.8,457.0,462.8,10868,10168654000.0,224434000.0,383300,108100,17891.95
2023-01-27,NIFTY,2023-02-23,PE,18300.0,482.55,789.15,482.55,708.1,704.55,708.1,9704,9189334000.0,310174000.0,328250,-55050,17604.35
2023-01-30,NIFTY,2023-02-23,PE,18300.0,737.35,841.35,589.3,668.6,635.2,668.6,1820,1728300000.0,63000000.0,326650,-1600,17648.95
2023-01-31,NIFTY,2023-02-23,PE,18300.0,639.55,740.4,567.95,591.85,596.65,591.85,957,906557000.0,30902000.0,326950,300,17662.15
2023-02-01,NIFTY,2023-02-23,PE,18300.0,575.55,857.25,371.5,672.3,692.0,672.3,4112,3866305000.0000005,103825000.0,322800,-4150,17616.3
2023-02-02,NIFTY,2023-02-23,PE,18300.0,725.0,810.2,618.3,656.55,671.7,656.55,1438,1365111000.0,49341000.0,320100,-2700,17610.4
2023-02-03,NIFTY,2023-02-23,PE,18300.0,600.0,680.9,439.0,453.45,470.7,453.45,1468,1380865000.0,37645000.0,331150,11050,17854.05
2023-02-06,NIFTY,2023-02-23,PE,18300.0,499.0,585.2,487.0,528.95,535.0,528.95,632,594993000.0,16713000.0,323200,-7950,17764.6
2023-02-07,NIFTY,2023-02-23,PE,18300.0,520.4,615.85,476.0,547.6,543.8,547.6,1748,1647493999.9999998,48074000.0,321800,-1400,17721.5
2023-02-08,NIFTY,2023-02-23,PE,18300.0,516.9,516.9,400.8,422.05,420.85,422.05,3100,2904358000.0,67858000.0,304900,-16900,17871.7
2023-02-09,NIFTY,2023-02-23,PE,18300.0,440.0,499.0,365.6,385.85,370.95,385.85,1621,1516982000.0,33767000.0,301850,-3050,17893.45
2023-02-10,NIFTY,2023-02-23,PE,18300.0,459.45,494.6,426.6,440.0,444.15,440.0,1715,1608298000.0,39073000.0,297000,-4850,17856.5
2023-02-13,NIFTY,2023-02-23,PE,18300.0,440.9,555.0,418.0,507.35,510.0,507.35,975,916202000.0,24077000.0,288400,-8600,17770.9
2023-02-14,NIFTY,2023-02-23,PE,18300.0,479.35,489.5,350.55,369.45,374.0,369.45,3991,3729594999.9999995,77830000.0,229500,-58900,17929.85
2023-02-15,NIFTY,2023-02-23,PE,18300.0,400.0,434.85,276.9,290.75,281.9,290.75,5589,5207310000.0,93375000.0,278950,49450,18015.85
2023-02-16,NIFTY,2023-02-23,PE,18300.0,250.0,268.9,191.1,257.35,265.0,257.35,46348,42920774000.0,512354000.0,407250,128300,18035.85
2023-02-17,NIFTY,2023-02-23,PE,18300.0,329.2,413.2,270.6,357.8,349.75,357.8,35592,33145493000.0,578813000.0,369400,-37850,17944.2
2023-02-20,NIFTY,2023-02-23,PE,18300.0,338.05,468.0,295.05,439.95,436.2,439.95,16929,15804998000.000002,314963000.0,352000,-17400,17844.6
2023-02-21,NIFTY,2023-02-23,PE,18300.0,426.6,498.1,371.65,464.55,450.75,464.55,8741,8185296000.000001,187281000.0,284000,-68000,17826.7
2023-02-22,NIFTY,2023-02-23,PE,18300.0,510.0,768.1,510.0,742.45,733.6,742.45,4183,3961990000.0,134545000.0,217450,-66550,17554.3
2023-02-23,NIFTY,2023-02-23,PE,18300.0,726.9,832.7,675.0,791.05,787.7,17511.25,3632,3459187999.9999995,135908000.0,113400,-104050,17511.25
