Date,Symbol,Expiry,Option Type,Strike Price,Open,High,Low,Close,Last,Settle Price,Number of Contracts,Turnover,Premium Turnover,Open Interest,Change in OI,Underlying
2023-01-02,NIFTY,2023-02-23,CE,18900.0,157.0,166.05,146.95,160.1,160.1,160.1,535,509751000.0,4176000.0,49350,10450,18197.45
2023-01-03,NIFTY,2023-02-23,CE,18900.0,153.7,172.55,147.0,167.6,169.0,167.6,464,442258000.0,3778000.0,52550,3200,18232.55
2023-01-04,NIFTY,2023-02-23,CE,18900.0,155.3,163.3,119.15,121.4,133.85,121.4,1375,1308514000.0,9139000.0,52700,150,18042.95
2023-01-05,NIFTY,2023-02-23,CE,18900.0,121.4,132.45,90.9,101.55,101.5,101.55,2163,2055230000.0,11195000.0,69450,16750,17992.15
2023-01-06,NIFTY,2023-02-23,CE,18900.0,100.5,107.95,71.6,74.55,73.5,74.55,3390,3217206000.0,13656000.0,128350,58900,17859.45
2023-01-09,NIFTY,2023-02-23,CE,18900.0,85.4,111.0,83.0,101.15,100.5,101.15,2615,2484042000.0,12866999.999999998,149100,20750,18101.2
2023-01-10,NIFTY,2023-02-23,CE,18900.0,97.05,98.05,70.1,73.9,74.35,73.9,4435,4208398000.0000005,17323000.0,207300,58200,17914.15
2023-01-11,NIFTY,2023-02-23,CE,18900.0,73.9,85.0,65.0,65.85,65.0,65.85,3591,3406087000.0000005,12592000.0,207200,-100,17895.7
2023-01-12,NIFTY,2023-02-23,CE,18900.0,69.95,71.9,52.05,56.65,58.0,56.65,7056,6688959000.0,21039000.0,294600,87400,17858.2
2023-01-13,NIFTY,2023-02-23,CE,18900.0,57.0,69.75,46.05,60.5,59.8,60.5,5263,4987967000.0,14432000.0,358000,63400,17956.6
2023-01-16,NIFTY,2023-02-23,CE,18900.0,67.35,70.15,47.6,50.1,49.35,50.1,5934,5623656000.0,16026000.0,262100,-95900,17894.85
2023-01-17,NIFTY,2023-02-23,CE,18900.0,49.4,61.7,47.7,59.25,61.15,59.25,4137,3921001000.0,11536000.0,322950,60850,18053.3
2023-01-18,NIFTY,2023-02-23,CE,18900.0,60.25,79.0,56.35,77.65,79.0,77.65,5678,5385540000.0,19830000.0,333900,10950,18165.35
2023-01-19,NIFTY,2023-02-23,CE,18900.0,72.4,72.4,54.2,56.25,54.4,56.25,5555,5266481000.0,17006000.0,362050,28150,18107.85
2023-01-20,NIFTY,2023-02-23,CE,18900.0,54.4,59.75,42.0,44.3,43.8,44.3,9485,8986990000.0,23665000.0,413150,51100,18027.65
2023-01-23,NIFTY,2023-02-23,CE,18900.0,47.3,55.15,45.75,49.25,48.7,49.25,8018,7597316000.0,20306000.0,482000,68850,18118.55
2023-01-24,NIFTY,2023-02-23,CE,18900.0,63.55,63.55,41.4,43.8,42.1,43.8,6876,6514409000.0,16588999.999999998,482250,250,18118.3
2023-01-25,NIFTY,2023-02-23,CE,18900.0,40.0,40.0,26.05,27.15,26.05,27.15,21753,20590982000.0,34397000.0,517850,35600,17891.95
2023-01-27,NIFTY,2023-02-23,CE,18900.0,26.0,30.0,19.3,23.55,24.15,23.55,22526,21313218000.0,26148000.0,390050,-127800,17604.35
2023-01-30,NIFTY,2023-02-23,CE,18900.0,23.55,28.95,18.95,23.25,23.3,23.25,13274,12559073000.0,15143000.0,349150,-40900,17648.95
2023-01-31,NIFTY,2023-02-23,CE,18900.0,25.55,26.0,18.25,18.95,19.0,18.95,7469,7065780000.0,7575000.0,358900,9750,17662.15
2023-02-01,NIFTY,2023-02-23,CE,18900.0,21.0,21.5,8.7,9.7,9.0,9.7,20086,18996038000.0,14768000.0,443500,84600,17616.3
2023-02-02,NIFTY,2023-02-23,CE,18900.0,9.5,10.0,6.25,6.75,7.15,6.75,8582,8113217000.0,3227000.0000000005,468500,25000,17610.4
2023-02-03,NIFTY,2023-02-23,CE,18900.0,7.55,7.9,5.1,6.3,6.0,6.3,7042,6656739999.999999,2050000.0,457350,-11150,17854.05
2023-02-06,NIFTY,2023-02-23,CE,18900.0,5.75,6.0,4.4,5.5,5.45,5.5,7219,6823917000.0,1962000.0,369100,-88250,17764.6
2023-02-07,NIFTY,2023-02-23,CE,18900.0,5.3,5.65,4.15,4.3,4.3,4.3,3674,3472797000.0,867000.0,368550,-550,17721.5
2023-02-08,NIFTY,2023-02-23,CE,18900.0,4.3,4.65,3.7,3.9,3.9,3.9,5829,5509603000.0,1198000.0,346150,-22400,17871.7
2023-02-09,NIFTY,2023-02-23,CE,18900.0,3.65,4.05,2.1,2.95,2.8,2.95,3324,3141750000.0,570000.0,347900,1750,17893.45
2023-02-10,NIFTY,2023-02-23,CE,18900.0,3.0,3.75,2.25,2.55,2.25,2.55,5430,5132045000.0,695000.0,309800,-38100,17856.5
2023-02-13,NIFTY,2023-02-23,CE,18900.0,2.55,11.65,2.2,2.6,2.7,2.6,4215,3983776000.0,601000.0,300800,-9000,17770.9
2023-02-14,NIFTY,2023-02-23,CE,18900.0,3.0,3.0,2.0,2.35,2.25,2.35,6583,6221797000.0,861999.9999999999,299150,-1650,17929.85
2023-02-15,NIFTY,2023-02-23,CE,18900.0,2.4,2.65,1.8,2.1,1.8,2.1,7880,7447424000.000001,824000.0,261000,-38150,18015.85
2023-02-16,NIFTY,2023-02-23,CE,18900.0,2.3,3.0,1.8,2.15,2.25,2.15,108984,103002520000.0,12640000.0,1881650,1620650,18035.85
2023-02-17,NIFTY,2023-02-23,CE,18900.0,1.95,2.15,1.4,1.9,1.9,1.9,263977,249481775999.99997,23511000.0,3858700,1977050,17944.2
2023-02-20,NIFTY,2023-02-23,CE,18900.0,1.8,3.6,1.35,2.95,3.6,2.95,276789,261596627999.99997,31023000.0,4943850,1085150,17844.6
2023-02-21,NIFTY,2023-02-23,CE,18900.0,3.0,3.0,0.9,1.0,1.05,1.0,214885,203083646000.0,17321000.0,3566350,-1377500,17826.7
2023-02-22,NIFTY,2023-02-23,CE,18900.0,1.05,2.3,0.85,1.75,1.95,1.75,182636,172606518000.0,15497999.999999998,3538550,-27800,17554.3
2023-02-23,NIFTY,2023-02-23,CE,18900.0,1.55,1.55,0.05,0.1,0.1,17511.25,117078,110641995000.0,3285000.0,2435750,-1102800,17511.25
