Date,Symbol,Expiry,Option Type,Strike Price,Open,High,Low,Close,Last,Settle Price,Number of Contracts,Turnover,Premium Turnover,Open Interest,Change in OI,Underlying
2023-01-02,NIFTY,2023-02-23,PE,19100.0,854.65,867.85,837.55,867.85,867.85,988.85,3,2993000.0,128000.0,4750,50,18197.45
2023-01-03,NIFTY,2023-02-23,PE,19100.0,824.2,835.4,817.0,835.4,835.4,962.0,3,2989000.0,124000.0,4750,0,18232.55
2023-01-04,NIFTY,2023-02-23,PE,19100.0,828.4,828.4,828.4,828.4,828.4,1094.35,1,996000.0000000001,41000.0,4750,0,18042.95
2023-01-05,NIFTY,2023-02-23,PE,19100.0,0.0,0.0,0.0,828.4,828.4,1129.1,0,0.0,0.0,4750,0,17992.15
2023-01-06,NIFTY,2023-02-23,PE,19100.0,0.0,0.0,0.0,828.4,828.4,1227.55,0,0.0,0.0,4750,0,17859.45
2023-01-09,NIFTY,2023-02-23,PE,19100.0,1023.75,1023.75,890.15,917.55,920.7,917.55,94,94109000.0,4339000.0,5300,550,18101.2
2023-01-10,NIFTY,2023-02-23,PE,19100.0,1001.65,1053.6,1001.65,1053.6,1053.6,1180.85,2,2013000.0,103000.0,5250,-50,17914.15
2023-01-11,NIFTY,2023-02-23,PE,19100.0,1053.0,1100.0,1053.0,1100.0,1100.0,1100.0,2,2018000.0,108000.0,5300,50,17895.7
2023-01-12,NIFTY,2023-02-23,PE,19100.0,1060.4,1112.15,1060.4,1112.15,1112.15,1221.15,5,5047000.0,272000.0,5300,0,17858.2
2023-01-13,NIFTY,2023-02-23,PE,19100.0,1166.15,1193.55,1028.35,1028.35,1028.35,1140.85,5,5062000.0,287000.0,5400,100,17956.6
2023-01-16,NIFTY,2023-02-23,PE,19100.0,1100.0,1100.0,1100.0,1100.0,1100.0,1100.0,1,1010000.0,55000.00000000001,5400,0,17894.85
2023-01-17,NIFTY,2023-02-23,PE,19100.0,1090.15,1090.15,1000.0,1000.0,1000.0,1057.9,48,48272000.0,2432000.0,5400,0,18053.3
2023-01-18,NIFTY,2023-02-23,PE,19100.0,959.0,959.0,842.3,850.0,850.0,969.8,26,25998000.0,1168000.0,5700,300,18165.35
2023-01-19,NIFTY,2023-02-23,PE,19100.0,928.5,955.0,900.7,955.0,955.0,1010.5,14,14026000.0,656000.0,6100,400,18107.85
2023-01-20,NIFTY,2023-02-23,PE,19100.0,925.65,988.15,874.5,981.05,988.15,981.05,72,72198000.0,3438000.0000000005,4500,-1600,18027.65
2023-01-23,NIFTY,2023-02-23,PE,19100.0,884.0,915.0,859.75,894.65,892.0,894.65,76,75910000.0,3329999.9999999995,6500,2000,18118.55
2023-01-24,NIFTY,2023-02-23,PE,19100.0,840.0,925.7,839.25,898.0,898.0,898.0,33,32967000.0,1452000.0,7750,1250,18118.3
2023-01-25,NIFTY,2023-02-23,PE,19100.0,925.6,1131.2,925.55,1122.25,1114.75,1122.25,217,218498000.0,11263000.0,15000,7250,17891.95
2023-01-27,NIFTY,2023-02-23,PE,19100.0,1167.4,1308.45,1167.4,1308.45,1308.45,1433.85,22,22353000.0,1343000.0,15350,350,17604.35
2023-01-30,NIFTY,2023-02-23,PE,19100.0,1496.9,1496.9,1345.05,1345.05,1345.05,1345.05,2,2052000.0,142000.0,15400,50,17648.95
2023-01-31,NIFTY,2023-02-23,PE,19100.0,1355.0,1455.0,1294.35,1294.35,1294.35,1294.35,11,11263000.0,758000.0,15500,100,17662.15
2023-02-01,NIFTY,2023-02-23,PE,19100.0,1193.15,1422.3,1050.0,1390.55,1422.3,1390.55,36,36651000.0,2271000.0,15200,-300,17616.3
2023-02-02,NIFTY,2023-02-23,PE,19100.0,1500.7,1511.0,1405.0,1411.0,1411.0,1411.0,17,17473000.0,1238000.0,14500,-700,17610.4
2023-02-03,NIFTY,2023-02-23,PE,19100.0,1455.0,1455.0,1190.0,1202.5,1215.0,1202.5,4,4086000.0,266000.0,14500,0,17854.05
2023-02-06,NIFTY,2023-02-23,PE,19100.0,1288.0,1338.0,1288.0,1301.0,1301.0,1301.0,7,7147000.0,462000.0,14200,-300,17764.6
2023-02-07,NIFTY,2023-02-23,PE,19100.0,1333.0,1333.0,1333.0,1333.0,1333.0,1333.5,1,1022000.0000000001,67000.0,14200,0,17721.5
2023-02-08,NIFTY,2023-02-23,PE,19100.0,1218.4,1230.0,1170.0,1170.0,1170.0,1190.55,6,6091000.0,361000.0,14100,-100,17871.7
2023-02-09,NIFTY,2023-02-23,PE,19100.0,1245.0,1245.0,1139.5,1152.5,1145.0,1152.5,28,28416000.000000004,1676000.0000000002,14600,500,17893.45
2023-02-10,NIFTY,2023-02-23,PE,19100.0,1212.65,1260.0,1212.65,1221.85,1221.35,1221.85,14,14232000.0,861999.9999999999,14300,-300,17856.5
2023-02-13,NIFTY,2023-02-23,PE,19100.0,1280.0,1280.0,1280.0,1280.0,1280.0,1295.8,1,1019000.0,64000.0,14300,0,17770.9
2023-02-14,NIFTY,2023-02-23,PE,19100.0,1230.0,1230.0,1148.3,1148.35,1148.35,1148.35,34,34542000.0,2072000.0,12750,-1550,17929.85
2023-02-15,NIFTY,2023-02-23,PE,19100.0,1195.0,1195.05,1057.8,1060.8,1057.8,1060.8,10,10113000.0,563000.0,12600,-150,18015.85
2023-02-16,NIFTY,2023-02-23,PE,19100.0,969.55,969.55,969.55,969.55,969.55,1042.0,2,2007000.0,97000.0,12600,0,18035.85
2023-02-17,NIFTY,2023-02-23,PE,19100.0,1100.0,1156.65,1096.0,1156.65,1156.65,1135.0,3,3033000.0,168000.0,12550,-50,17944.2
2023-02-20,NIFTY,2023-02-23,PE,19100.0,1144.0,1255.0,1144.0,1250.0,1250.0,1244.5,17,17262000.0,1027000.0,11800,-750,17844.6
2023-02-21,NIFTY,2023-02-23,PE,19100.0,1226.3,1226.3,1186.3,1209.65,1209.65,1266.05,52,52754999.99999999,3095000.0,10600,-1200,17826.7
2023-02-22,NIFTY,2023-02-23,PE,19100.0,1412.0,1540.8,1412.0,1518.0,1518.0,1542.1,31,31942000.0,2337000.0,10150,-450,17554.3
2023-02-23,NIFTY,2023-02-23,PE,19100.0,1509.8,1598.0,1490.0,1592.95,1598.0,17511.25,104,107273000.0,7953000.0,6750,-3400,17511.25
