Date,Symbol,Expiry,Option Type,Strike Price,Open,High,Low,Close,Last,Settle Price,Number of Contracts,Turnover,Premium Turnover,Open Interest,Change in OI,Underlying
2023-01-02,NIFTY,2023-02-23,CE,19300.0,64.95,68.25,59.75,66.7,65.95,66.7,704,681645000.0,2285000.0,30200,8550,18197.45
2023-01-03,NIFTY,2023-02-23,CE,19300.0,65.5,70.0,59.45,68.45,68.0,68.45,810,784282000.0,2632000.0,52500,22300,18232.55
2023-01-04,NIFTY,2023-02-23,CE,19300.0,68.0,68.0,46.5,48.0,46.5,48.0,2066,1999045000.0,5355000.0,68800,16300,18042.95
2023-01-05,NIFTY,2023-02-23,CE,19300.0,40.05,51.65,34.5,38.4,37.8,38.4,1804,1744590000.0000002,3729999.9999999995,59800,-9000,17992.15
2023-01-06,NIFTY,2023-02-23,CE,19300.0,39.0,40.0,27.5,29.2,27.5,29.2,1834,1772716000.0,2906000.0,57850,-1950,17859.45
2023-01-09,NIFTY,2023-02-23,CE,19300.0,35.0,39.0,25.5,36.4,36.9,36.4,3079,2976704000.0,5469000.0,94050,36200,18101.2
2023-01-10,NIFTY,2023-02-23,CE,19300.0,33.4,33.7,27.1,28.55,29.0,28.55,2243,2167834000.0,3339000.0,73000,-21050,17914.15
2023-01-11,NIFTY,2023-02-23,CE,19300.0,27.5,31.75,24.35,25.2,24.35,25.2,577,557591000.0,786000.0,74100,1100,17895.7
2023-01-12,NIFTY,2023-02-23,CE,19300.0,25.2,26.7,23.0,23.8,23.5,23.8,750,724667000.0,917000.0,70450,-3650,17858.2
2023-01-13,NIFTY,2023-02-23,CE,19300.0,23.75,26.55,19.55,22.75,22.45,22.75,1049,1013462999.9999999,1178000.0,72650,2200,17956.6
2023-01-16,NIFTY,2023-02-23,CE,19300.0,25.2,25.3,19.85,20.35,19.95,20.35,913,882031000.0,986000.0,83950,11300,17894.85
2023-01-17,NIFTY,2023-02-23,CE,19300.0,19.65,23.25,19.0,21.3,22.15,21.3,1338,1292568000.0,1398000.0,103850,19900,18053.3
2023-01-18,NIFTY,2023-02-23,CE,19300.0,22.7,25.75,20.1,24.7,24.85,24.7,2655,2565259000.0,3184000.0,140100,36250,18165.35
2023-01-19,NIFTY,2023-02-23,CE,19300.0,22.15,24.0,17.65,17.95,17.9,17.95,2481,2396618000.0,2453000.0,159550,19450,18107.85
2023-01-20,NIFTY,2023-02-23,CE,19300.0,18.0,18.45,13.95,14.4,14.45,14.4,3701,3574476000.0,3011000.0,132300,-27250,18027.65
2023-01-23,NIFTY,2023-02-23,CE,19300.0,15.65,16.3,14.35,15.2,15.15,15.2,3433,3315478000.0,2633000.0,153250,20950,18118.55
2023-01-24,NIFTY,2023-02-23,CE,19300.0,15.85,16.25,12.15,13.05,12.15,13.05,3017,2913538000.0,2133000.0,141150,-12100,18118.3
2023-01-25,NIFTY,2023-02-23,CE,19300.0,11.25,14.0,10.75,11.75,11.15,11.75,7024,6782396000.000001,4236000.0,190600,49450,17891.95
2023-01-27,NIFTY,2023-02-23,CE,19300.0,11.75,12.55,9.5,11.7,12.05,11.7,6790,6555953999.999999,3604000.0,191200,600,17604.35
2023-01-30,NIFTY,2023-02-23,CE,19300.0,12.05,12.8,8.6,10.35,10.1,10.35,3320,3205560000.0,1760000.0000000002,182800,-8400,17648.95
2023-01-31,NIFTY,2023-02-23,CE,19300.0,11.25,12.35,7.55,7.95,8.05,7.95,3381,3264144000.0,1479000.0,182150,-650,17662.15
2023-02-01,NIFTY,2023-02-23,CE,19300.0,8.1,8.8,4.9,5.7,5.35,5.7,6754,6519887000.0,2277000.0,145850,-36300,17616.3
2023-02-02,NIFTY,2023-02-23,CE,19300.0,5.35,5.35,4.0,4.6,4.9,4.6,1649,1591669000.0,384000.0,156150,10300,17610.4
2023-02-03,NIFTY,2023-02-23,CE,19300.0,4.5,4.7,3.55,3.95,3.85,3.95,1244,1200706000.0,246000.0,153450,-2700,17854.05
2023-02-06,NIFTY,2023-02-23,CE,19300.0,3.85,4.65,3.35,3.55,3.6,3.55,2089,2016266999.9999998,382000.0,131600,-21850,17764.6
2023-02-07,NIFTY,2023-02-23,CE,19300.0,3.55,3.65,3.15,3.3,3.35,3.3,875,844526000.0,151000.0,129700,-1900,17721.5
2023-02-08,NIFTY,2023-02-23,CE,19300.0,3.2,3.6,2.15,3.4,3.4,3.4,1647,1589631000.0,276000.0,137650,7950,17871.7
2023-02-09,NIFTY,2023-02-23,CE,19300.0,3.5,3.5,2.1,2.7,2.75,2.7,795,767292000.0,117000.0,136800,-850,17893.45
2023-02-10,NIFTY,2023-02-23,CE,19300.0,2.75,2.75,1.95,2.2,2.2,2.2,1063,1025916000.0,121000.0,138250,1450,17856.5
2023-02-13,NIFTY,2023-02-23,CE,19300.0,2.35,2.4,1.95,2.3,2.35,2.3,970,936157000.0,107000.0,136600,-1650,17770.9
2023-02-14,NIFTY,2023-02-23,CE,19300.0,2.4,2.45,1.6,1.75,1.65,1.75,2267,2187899000.0,244000.0,151750,15150,17929.85
2023-02-15,NIFTY,2023-02-23,CE,19300.0,1.35,1.95,1.35,1.6,1.45,1.6,1885,1819183000.0000002,158000.0,146750,-5000,18015.85
2023-02-16,NIFTY,2023-02-23,CE,19300.0,1.55,1.95,1.2,1.35,1.35,1.35,12007,11587688000.0,933000.0,418600,271850,18035.85
2023-02-17,NIFTY,2023-02-23,CE,19300.0,1.4,1.55,1.05,1.35,1.4,1.35,26255,25337811000.0,1736000.0,426150,7550,17944.2
2023-02-20,NIFTY,2023-02-23,CE,19300.0,1.4,3.45,1.0,2.4,3.45,2.4,60951,58823139000.0,5424000.0,872650,446500,17844.6
2023-02-21,NIFTY,2023-02-23,CE,19300.0,0.95,2.2,0.6,0.7,0.65,0.7,22227,21450401000.0,1346000.0,758900,-113750,17826.7
2023-02-22,NIFTY,2023-02-23,CE,19300.0,0.7,2.0,0.65,1.6,1.5,1.6,22168,21393568000.0,1448000.0,657350,-101550,17554.3
2023-02-23,NIFTY,2023-02-23,CE,19300.0,1.3,1.3,0.05,0.05,0.05,17511.25,19253,18579397000.0,252000.0,517900,-139450,17511.25
