Date,Symbol,Expiry,Option Type,Strike Price,Open,High,Low,Close,Last,Settle Price,Number of Contracts,Turnover,Premium Turnover,Open Interest,Change in OI,Underlying
2023-01-02,NIFTY,2023-02-23,PE,19300.0,0.0,0.0,0.0,1226.0,1226.0,1134.65,0,0.0,0.0,1250,0,18197.45
2023-01-03,NIFTY,2023-02-23,PE,19300.0,0.0,0.0,0.0,1226.0,1226.0,1106.65,0,0.0,0.0,1250,0,18232.55
2023-01-04,NIFTY,2023-02-23,PE,19300.0,0.0,0.0,0.0,1226.0,1226.0,1247.1,0,0.0,0.0,1250,0,18042.95
2023-01-05,NIFTY,2023-02-23,PE,19300.0,1219.15,1219.15,1219.15,1219.15,1219.15,1284.65,1,1026000.0,61000.0,1300,50,17992.15
2023-01-06,NIFTY,2023-02-23,PE,19300.0,0.0,0.0,0.0,1219.15,1219.15,1390.05,0,0.0,0.0,1300,0,17859.45
2023-01-09,NIFTY,2023-02-23,PE,19300.0,0.0,0.0,0.0,1219.15,1219.15,1195.0,0,0.0,0.0,1300,0,18101.2
2023-01-10,NIFTY,2023-02-23,PE,19300.0,0.0,0.0,0.0,1219.15,1219.15,1343.6,0,0.0,0.0,1300,0,17914.15
2023-01-11,NIFTY,2023-02-23,PE,19300.0,1275.0,1275.0,1275.0,1275.0,1275.0,1357.45,1,1028999.9999999999,64000.0,1350,50,17895.7
2023-01-12,NIFTY,2023-02-23,PE,19300.0,0.0,0.0,0.0,1275.0,1275.0,1387.75,0,0.0,0.0,1350,0,17858.2
2023-01-13,NIFTY,2023-02-23,PE,19300.0,1361.0,1361.0,1174.0,1174.0,1174.0,1304.15,5,5154000.0,329000.0,1350,0,17956.6
2023-01-16,NIFTY,2023-02-23,PE,19300.0,0.0,0.0,0.0,1174.0,1174.0,1354.1,0,0.0,0.0,1350,0,17894.85
2023-01-17,NIFTY,2023-02-23,PE,19300.0,1291.4,1291.4,1193.5,1193.5,1193.5,1220.0,8,8215000.000000001,495000.0,1550,200,18053.3
2023-01-18,NIFTY,2023-02-23,PE,19300.0,1050.0,1054.05,1025.0,1025.0,1025.0,1127.3,4,4068000.0,208000.0,1600,50,18165.35
2023-01-19,NIFTY,2023-02-23,PE,19300.0,1115.0,1116.85,1064.1,1066.75,1066.75,1171.75,7,7136000.0,381000.0,1800,200,18107.85
2023-01-20,NIFTY,2023-02-23,PE,19300.0,1082.0,1082.0,1082.0,1082.0,1082.0,1236.4,1,1019000.0,54000.0,1850,50,18027.65
2023-01-23,NIFTY,2023-02-23,PE,19300.0,1045.0,1105.0,1045.0,1075.0,1075.0,1075.0,53,53966000.0,2821000.0,4100,2250,18118.55
2023-01-24,NIFTY,2023-02-23,PE,19300.0,1032.2,1095.45,1020.0,1095.45,1095.45,1157.5,27,27470000.0,1415000.0,4700,600,18118.3
2023-01-25,NIFTY,2023-02-23,PE,19300.0,1170.0,1340.0,1170.0,1310.0,1310.0,1353.7,38,39112000.0,2442000.0,5850,1150,17891.95
2023-01-27,NIFTY,2023-02-23,PE,19300.0,1423.85,1681.5,1385.95,1681.5,1681.5,1620.9,39,40617000.0,2982000.0,5850,0,17604.35
2023-01-30,NIFTY,2023-02-23,PE,19300.0,1722.5,1726.15,1720.0,1720.0,1720.0,1582.7,4,4204000.0,344000.0,5750,-100,17648.95
2023-01-31,NIFTY,2023-02-23,PE,19300.0,0.0,0.0,0.0,1720.0,1720.0,1571.6,0,0.0,0.0,5750,0,17662.15
2023-02-01,NIFTY,2023-02-23,PE,19300.0,1381.3,1520.25,1261.5,1520.25,1520.25,1617.5,22,22771000.0,1541000.0,6550,800,17616.3
2023-02-02,NIFTY,2023-02-23,PE,19300.0,0.0,0.0,0.0,1520.25,1520.25,1624.9,0,0.0,0.0,6550,0,17610.4
2023-02-03,NIFTY,2023-02-23,PE,19300.0,1578.0,1578.0,1578.0,1578.0,1578.0,1393.2,1,1044000.0,79000.0,6550,0,17854.05
2023-02-06,NIFTY,2023-02-23,PE,19300.0,0.0,0.0,0.0,1578.0,1578.0,1483.35,0,0.0,0.0,6550,0,17764.6
2023-02-07,NIFTY,2023-02-23,PE,19300.0,0.0,0.0,0.0,1578.0,1578.0,1527.35,0,0.0,0.0,6550,0,17721.5
2023-02-08,NIFTY,2023-02-23,PE,19300.0,0.0,0.0,0.0,1578.0,1578.0,1382.25,0,0.0,0.0,6550,0,17871.7
2023-02-09,NIFTY,2023-02-23,PE,19300.0,1410.4,1420.65,1345.0,1348.1,1348.1,1362.4,18,18634000.0,1264000.0,6850,300,17893.45
2023-02-10,NIFTY,2023-02-23,PE,19300.0,1439.5,1439.5,1439.5,1439.5,1439.5,1400.6,3,3111000.0,216000.0,6850,0,17856.5
2023-02-13,NIFTY,2023-02-23,PE,19300.0,1425.75,1493.25,1425.75,1493.25,1493.25,1493.25,4,4152000.0000000005,292000.0,6750,-100,17770.9
2023-02-14,NIFTY,2023-02-23,PE,19300.0,1430.0,1430.0,1343.0,1343.0,1343.0,1343.0,3,3105000.0,210000.0,6600,-150,17929.85
2023-02-15,NIFTY,2023-02-23,PE,19300.0,1396.0,1396.0,1257.3,1262.65,1258.05,1262.65,21,21666000.0,1401000.0,5800,-800,18015.85
2023-02-16,NIFTY,2023-02-23,PE,19300.0,1192.7,1246.6,1174.2,1246.6,1246.6,1246.6,3,3076000.0,181000.0,5750,-50,18035.85
2023-02-17,NIFTY,2023-02-23,PE,19300.0,1312.65,1330.45,1275.0,1325.0,1325.0,1334.1,6,6185000.0,395000.0,5700,-50,17944.2
2023-02-20,NIFTY,2023-02-23,PE,19300.0,1378.0,1455.35,1378.0,1445.0,1445.0,1444.4,13,13476000.0,931000.0,5550,-150,17844.6
2023-02-21,NIFTY,2023-02-23,PE,19300.0,1410.0,1469.0,1391.05,1469.0,1469.0,1469.0,8,8289000.0,569000.0,5350,-200,17826.7
2023-02-22,NIFTY,2023-02-23,PE,19300.0,1615.0,1715.0,1615.0,1715.0,1715.0,1742.05,15,15709000.0,1234000.0,5350,0,17554.3
2023-02-23,NIFTY,2023-02-23,PE,19300.0,1742.05,1783.3,1695.0,1783.3,1783.3,17511.25,50,52594000.00000001,4344000.0,4250,-1100,17511.25
